[21:59:20][INFO] io.github.mdillon95.scoutingpc.Main: Starting Drome Scouting App
[21:59:20][INFO] io.github.mdillon95.scoutingpc.Main: Getting System Properties
[21:59:20][INFO] io.github.mdillon95.scoutingpc.Main: OS Name: Windows 10
[21:59:20][INFO] io.github.mdillon95.scoutingpc.Main: Setting global UI look and feel
[21:59:20][INFO] io.github.mdillon95.scoutingpc.Main: Attempting to login to Firebase
[21:59:20][INFO] io.github.mdillon95.scoutingpc.LoginDialog: Authenticating...
[21:59:20][INFO] io.github.mdillon95.scoutingpc.LoginDialog: App [DEFAULT] initialized.
[21:59:20][INFO] io.github.mdillon95.scoutingpc.LoginDialog: App initialized with URL https://scouting-4c5e1.firebaseio.com/
[21:59:20][INFO] io.github.mdillon95.scoutingpc.LoginDialog: Created ScoutingFrame
[21:59:21][ERROR] io.github.mdillon95.scoutingpc.PaintablePanel: Can't read input file!
[21:59:41][DEBUG] io.github.mdillon95.scoutingpc.DataManager: Read: 3/18/2017 11:09:28,,3340,,MAR Bridgewater-Raritain,Qualifications,1,blue,1,41,5310,Yes,1,,0,0,slow,0-33%,0,0,0,0,0-33%,No,0,0,,No,85,Missed 3 gears. Couldnt reach climbs. ,No,
[21:59:41][DEBUG] io.github.mdillon95.scoutingpc.DataManager: Read: 3/18/2017 11:17:26,,219,Team Impact,MAR Bridgewater-Raritain,Qualifications,2,blue,1,223,4281,No,1,Blue Key,2,0,medium,34-66%,0,0,2,2,34-66%,Yes,0,0,,Yes,265,super fast but barely shot any balls only gears.,No,BAgladden@yahoo.com
[21:59:41][DEBUG] io.github.mdillon95.scoutingpc.DataManager: Read: 3/18/2017 11:17:50,,4281,Bulldogs,MAR Bridgewater-Raritain,Qualifications,2,blue,2,223,219,Yes,0,Blue Key,0,10,medium,0-33%,0,0,39,0,34-66%,Yes,0,0,,Yes,265,Very accurate,No,
[21:59:41][DEBUG] io.github.mdillon95.scoutingpc.DataManager: Read: 3/18/2017 11:25:56,,5992,,MAR Bridgewater-Raritain,Qualifications,3,blue,2,2168,4653,Yes,0,,0,0,slow,0-33%,0,0,0,2,0-33%,No,0,0,,Yes,285,Attempted hang. ,No,
[21:59:41][DEBUG] io.github.mdillon95.scoutingpc.DataManager: Read: 3/18/2017 11:26:05,,2168,Aluminum Falcons,MAR Bridgewater-Raritain,Qualifications,3,blue,3,5992,4653,Yes,1,,0,0,slow,0-33%,0,0,0,3,0-33%,Yes,0,0,,Yes,285,Super fast but only focused on gears ,Yes,BAgladden@yahoo.com
[21:59:41][DEBUG] io.github.mdillon95.scoutingpc.DataManager: Read: 3/18/2017 11:35:25,,1626,Falcon Robotics,MAR Bridgewater-Raritain,Qualifications,4,blue,1,102,1257,Yes,0,,0,0,slow,0-33%,0,0,0,1,0-33%,No,0,0,,Yes,230,Red team slowed them down but if it wasn't for their alliances hanging they would have lost.,Yes,BAgpadden@yahoo.com
[21:59:41][DEBUG] io.github.mdillon95.scoutingpc.DataManager: Read: 3/18/2017 11:35:30,,102,Gearheads,MAR Bridgewater-Raritain,Qualifications,4,blue,2,1626,1257,Yes,0,,0,0,slow,0-33%,0,0,0,3,0-33%,Yes,0,0,,Yes,230,Fast gear,No,
[21:59:41][DEBUG] io.github.mdillon95.scoutingpc.DataManager: Read: 3/18/2017 11:43:51,,1989,Viking Robotics,MAR Bridgewater-Raritain,Qualifications,5,blue,1,114,4573,Yes,1,,0,0,slow,0-33%,0,0,0,3,0-33%,No,0,0,,Yes,230,,Yes,
[21:59:41][DEBUG] io.github.mdillon95.scoutingpc.DataManager: Read: 3/18/2017 11:51:10,,1776,Pacasack pioneers ,MAR Bridgewater-Raritain,Qualifications,6,blue,2,56,6203,Yes,0,,0,0,slow,0-33%,0,0,2,3,0-33%,Yes,0,0,,No,255,Team 4954 won this match in the red alliance ,Yes,BAgladden@yahoo.com
[21:59:41][DEBUG] io.github.mdillon95.scoutingpc.DataManager: Read: 3/18/2017 11:52:57,,56,,MAR Bridgewater-Raritain,Qualifications,6,blue,1,1676,6203,Yes,0,,0,0,medium,0-33%,0,0,0,4,0-33%,Yes,0,0,,No,230,Idk what the final score was,Yes,
[21:59:41][DEBUG] io.github.mdillon95.scoutingpc.DataManager: Read: 3/18/2017 11:58:41,,219,Team Impact,MAR Bridgewater-Raritain,Qualifications,7,red,3,102,265,No,0,Red Retrieval,0,4,slow,0-33%,0,0,0,1,0-33%,Yes,0,0,,No,167,,No,BAgladden@yahoo.com
[21:59:41][DEBUG] io.github.mdillon95.scoutingpc.DataManager: Read: 3/18/2017 11:58:51,,3142,,MAR Bridgewater-Raritain,Qualifications,7,blue,2,4035,5992,Yes,0,,0,0,slow,0-33%,0,0,0,3,0-33%,Yes,0,0,,Yes,240,Hangs fast,Yes,
[21:59:41][DEBUG] io.github.mdillon95.scoutingpc.DataManager: Read: 3/18/2017 12:07:59,,1370,Thermogenesis,MAR Bridgewater-Raritain,Qualifications,8,blue,3,303,3515,Yes,0,,0,0,slow,0-33%,0,0,0,2,0-33%,Yes,0,0,,Yes,217,,Yes,BAgladden@yahoo.com
[21:59:41][DEBUG] io.github.mdillon95.scoutingpc.DataManager: Read: 3/18/2017 12:08:26,,303,,MAR Bridgewater-Raritain,Qualifications,8,blue,2,1370,3515,Yes,1,Center,0,0,slow,0-33%,0,0,8,3,34-66%,Yes,0,0,,Yes,217,Shot at the end. Very fast bot,Yes,
[21:59:41][DEBUG] io.github.mdillon95.scoutingpc.DataManager: Read: 3/18/2017 12:17:59,,747,Flight Crew,MAR Bridgewater-Raritain,Qualifications,9,blue,3,5666,4573,Yes,1,,0,0,slow,0-33%,0,0,0,2,0-33%,Yes,0,0,,No,147,Their team in the crowd covered my vision no matter where I moved and wouldn't put their sign down. So some results may vary. Robot was very fast. Blue team was trapped by red team.,Yes,BAgladden@yahoo.com
[21:59:41][DEBUG] io.github.mdillon95.scoutingpc.DataManager: Read: 3/18/2017 12:21:17,,2168,,MAR Bridgewater-Raritain,Qualifications,10,red,2,1989,3637,Yes,0,,0,0,slow,0-33%,0,0,0,3,0-33%,Yes,0,0,,Yes,280,Fast climb,No,
[21:59:41][DEBUG] io.github.mdillon95.scoutingpc.DataManager: Read: 3/18/2017 12:26:43,,1676,Pacsacks Pioneers,MAR Bridgewater-Raritain,Qualifications,10,blue,1,265,223,Yes,0,,0,0,slow,0-33%,0,0,3,3,34-66%,Yes,0,0,,Yes,257,256's robot dropped from weak rope.,Yes,BAgladden@yahoo.com
[21:59:41][DEBUG] io.github.mdillon95.scoutingpc.DataManager: Read: 3/18/2017 12:28:52,,265,,MAR Bridgewater-Raritain,Qualifications,10,blue,2,223,1676,Yes,0,,0,0,slow,0-33%,0,0,0,0,0-33%,Yes,0,0,,Yes,257,Rope broke. Defending(?),Yes,
[21:59:41][DEBUG] io.github.mdillon95.scoutingpc.DataManager: Read: 3/18/2017 14:13:13,,1257,Parallel Universe,MAR Bridgewater-Raritain,Qualifications,17,blue,1,219,56,Yes,0,,0,0,slow,0-33%,0,0,0,3,0-33%,Yes,0,0,,Yes,285,Fast bot. Reliable climb,No,
[21:59:41][DEBUG] io.github.mdillon95.scoutingpc.DataManager: Read: 3/18/2017 14:15:03,,1676,Pacsacks Pioneers,MAR Bridgewater-Raritain,Qualifications,10,blue,1,265,223,Yes,0,,0,0,slow,0-33%,0,0,3,3,34-66%,Yes,0,0,,Yes,257,256's robot dropped from weak rope.,Yes,BAgladden@yahoo.com
[21:59:41][DEBUG] io.github.mdillon95.scoutingpc.DataManager: Read: 3/18/2017 14:22:28,,2168,2168,MAR Bridgewater-Raritain,Qualifications,18,blue,3,1403,4035,Yes,1,,0,0,slow,0-33%,0,0,0,2,0-33%,Yes,0,0,,Yes,255,Sometimes gets fuel stuck in gear pick up,No,
[21:59:41][DEBUG] io.github.mdillon95.scoutingpc.DataManager: Read: 3/18/2017 14:22:56,,193,Mort data,MAR Bridgewater-Raritain,Qualifications,18,red,3,5310,6203,Yes,0,,0,0,slow,0-33%,0,0,0,2,0-33%,No,0,0,,No,115,,Yes,BAgladden@yahoo.com
[21:59:41][DEBUG] io.github.mdillon95.scoutingpc.DataManager: Read: 3/18/2017 14:27:40,,834,Spartains,MAR Bridgewater-Raritain,Qualifications,19,red,1,223,1626,Yes,1,,0,0,slow,0-33%,0,0,0,3,0-33%,Yes,0,0,,No,135,,Yes,BAgladden@yahoo.com
[21:59:41][DEBUG] io.github.mdillon95.scoutingpc.DataManager: Read: 3/18/2017 14:27:45,,3340,,MAR Bridgewater-Raritain,Qualifications,19,blue,2,1279,136,Yes,0,,0,0,slow,0-33%,0,0,0,3,0-33%,No,0,0,,No,135,,No,
[21:59:41][DEBUG] io.github.mdillon95.scoutingpc.DataManager: Read: 3/18/2017 14:35:12,,1676,Pacsack Pioneers,MAR Bridgewater-Raritain,Qualifications,20,blue,2,4954,1257,Yes,1,,0,0,slow,0-33%,0,0,0,3,0-33%,No,0,0,,Yes,305,,Yes,BAgpadden@yahoo.com
[21:59:41][DEBUG] io.github.mdillon95.scoutingpc.DataManager: Read: 3/18/2017 14:36:20,,224,,MAR Bridgewater-Raritain,Qualifications,20,red,3,5993,4573,Yes,0,,0,0,slow,0-33%,0,0,0,2,0-33%,No,0,0,,No,157,Would randomly shoot fuel not a fuel,Yes,
[21:59:41][DEBUG] io.github.mdillon95.scoutingpc.DataManager: Read: 3/18/2017 14:43:57,,265,,MAR Bridgewater-Raritain,Qualifications,21,blue,2,3637,3515,Yes,0,,0,0,slow,0-33%,0,0,0,1,0-33%,Yes,0,0,,No,145,Very shakey climb. Wasnt staying,Yes,
[21:59:41][DEBUG] io.github.mdillon95.scoutingpc.DataManager: Read: 3/18/2017 14:51:48,,193,Mort Data,MAR Bridgewater-Raritain,Qualifications,22,red,3,102,4281,Yes,0,,0,0,slow,0-33%,0,0,0,1,0-33%,Yes,0,0,,Yes,237,,Yes,BAgladden@yahoo.com
[21:59:41][DEBUG] io.github.mdillon95.scoutingpc.DataManager: Read: 3/18/2017 14:51:58,,714,,MAR Bridgewater-Raritain,Qualifications,22,blue,2,1403,2559,Yes,0,,0,0,slow,0-33%,0,0,0,2,0-33%,No,0,0,,No,145,While in grip wheels got stuck over fuel,Yes,
[21:59:41][DEBUG] io.github.mdillon95.scoutingpc.DataManager: Read: 3/18/2017 14:57:54,,1807,Forgot the  name,MAR Bridgewater-Raritain,Qualifications,23,red,2,4035,56,Yes,0,,0,0,slow,0-33%,0,0,0,3,0-33%,Yes,0,0,,Yes,260,,Yes,BAgladden@yahoo.com
[21:59:41][DEBUG] io.github.mdillon95.scoutingpc.DataManager: Read: 3/18/2017 14:59:09,,5666,,MAR Bridgewater-Raritain,Qualifications,23,blue,3,4653,1626,Yes,0,,0,0,slow,0-33%,0,0,0,0,0-33%,No,0,0,,No,100,Disabled from match instantly after auto,Yes,
[21:59:41][DEBUG] io.github.mdillon95.scoutingpc.DataManager: Read: 3/18/2017 15:06:58,,747,Flight Crew,MAR Bridgewater-Raritain,Qualifications,24,red,1,1989,752,Yes,1,,0,0,slow,0-33%,0,0,24,2,67-100%,Yes,0,0,,No,221,They shot so many so fast I almost lost count,Yes,BAfladden@yahoo.com
[21:59:41][DEBUG] io.github.mdillon95.scoutingpc.DataManager: Read: 3/18/2017 15:07:31,,6203,,MAR Bridgewater-Raritain,Qualifications,23,blue,2,3142,303,Yes,0,,0,0,slow,0-33%,0,0,0,4,0-33%,Yes,0,0,,Yes,314,,Yes,
[21:59:41][DEBUG] io.github.mdillon95.scoutingpc.DataManager: Read: 3/18/2017 15:14:52,,219,Team Impact,MAR Bridgewater-Raritain,Qualifications,25,red,1,41,714,Yes,1,,0,0,slow,0-33%,0,0,17,2,67-100%,Yes,0,0,,Yes,285,,Yes,BAgladden@yahoo.com
[21:59:41][DEBUG] io.github.mdillon95.scoutingpc.DataManager: Read: 3/18/2017 15:15:30,,223,,MAR Bridgewater-Raritain,Qualifications,23,blue,1,3637,1219,Yes,0,,0,0,slow,0-33%,0,0,0,3,0-33%,Yes,0,0,,No,245,Disconnected for around 6 seconds,Yes,
[21:59:41][DEBUG] io.github.mdillon95.scoutingpc.DataManager: Read: 3/18/2017 15:21:37,,193,Mort Data,MAR Bridgewater-Raritain,Qualifications,26,red,1,5666,1807,Yes,0,,0,0,slow,0-33%,0,0,0,2,0-33%,Yes,0,0,,Yes,295,,Yes,BAgladden@yahoo.com
[21:59:41][DEBUG] io.github.mdillon95.scoutingpc.DataManager: Read: 3/18/2017 15:22:43,,834,,MAR Bridgewater-Raritain,Qualifications,26,blue,3,5992,3515,Yes,0,,0,0,slow,0-33%,0,0,0,3,0-33%,Yes,0,0,,No,185,Godly fast but disconnected for 10 seconds,Yes,
[21:59:41][DEBUG] io.github.mdillon95.scoutingpc.DataManager: Read: 3/18/2017 15:30:59,,2168,Aluminum Falcons ,MAR Bridgewater-Raritain,Qualifications,27,red,2,747,4281,Yes,1,,0,0,slow,0-33%,0,0,0,3,0-33%,No,0,0,,Yes,216,There might be a malfunction with the light that Falcon had because they went all the way up.,Yes,BAGLADDEN@yahoo.com
[21:59:41][DEBUG] io.github.mdillon95.scoutingpc.DataManager: Read: 3/18/2017 15:31:03,,4035,,MAR Bridgewater-Raritain,Qualifications,27,blue,1,752,4653,Yes,0,,0,0,slow,0-33%,0,0,0,3,0-33%,Yes,0,0,,No,149,,Yes,
[21:59:41][DEBUG] io.github.mdillon95.scoutingpc.DataManager: Read: 3/18/2017 15:40:05,,3142,,MAR Bridgewater-Raritain,Qualifications,28,blue,3,265,1257,Yes,0,,0,0,slow,0-33%,0,0,0,3,0-33%,Yes,0,0,,No,245,,Yes,
[21:59:41][DEBUG] io.github.mdillon95.scoutingpc.DataManager: Read: 3/18/2017 15:40:07,,223,Extreme Heat,MAR Bridgewater-Raritain,Qualifications,28,red,1,224,4954,Yes,0,,0,0,slow,0-33%,0,0,0,3,0-33%,Yes,0,0,,Yes,264,,Yes,BAgladden@yahoo.com
[21:59:41][DEBUG] io.github.mdillon95.scoutingpc.DataManager: Read: 3/18/2017 15:46:45,,1676,,MAR Bridgewater-Raritain,Qualifications,29,blue,1,1989,2559,Yes,1,,0,0,slow,0-33%,0,0,7,2,0-33%,Yes,0,0,,No,302,,Yes,
[21:59:41][DEBUG] io.github.mdillon95.scoutingpc.DataManager: Read: 3/18/2017 16:08:43,,256,,MAR Bridgewater-Raritain,Qualifications,32,blue,2,5666,4281,Yes,0,,0,0,slow,0-33%,0,0,0,2,0-33%,No,0,0,,No,60,Rope broke---again.,Yes,
[21:59:41][DEBUG] io.github.mdillon95.scoutingpc.DataManager: Read: 3/18/2017 16:15:50,,2168,,MAR Bridgewater-Raritain,Qualifications,33,blue,2,56,224,Yes,1,,0,0,slow,0-33%,0,0,0,2,0-33%,Yes,0,0,,Yes,255,,Yes,
[21:59:41][DEBUG] io.github.mdillon95.scoutingpc.DataManager: Read: 3/18/2017 16:28:02,,834,,MAR Bridgewater-Raritain,Qualifications,34,blue,2,1370,4573,Yes,0,,0,0,slow,0-33%,0,0,0,4,0-33%,Yes,0,0,,Yes,195,,Yes,
[21:59:41][DEBUG] io.github.mdillon95.scoutingpc.DataManager: Read: 3/18/2017 16:35:44,,102,,MAR Bridgewater-Raritain,Qualifications,35,blue,1,6203,747,Yes,0,,0,0,slow,0-33%,0,0,0,3,0-33%,No,0,0,,Yes,206,,No,
[21:59:41][DEBUG] io.github.mdillon95.scoutingpc.DataManager: Read: 3/18/2017 16:41:47,,303,,MAR Bridgewater-Raritain,Qualifications,36,blue,1,3340,3631,Yes,1,,0,0,slow,0-33%,0,0,43,2,0-33%,Yes,0,0,,Yes,306,,Yes,
[21:59:41][DEBUG] io.github.mdillon95.scoutingpc.DataManager: Read: 3/18/2017 16:49:18,,41,,MAR Bridgewater-Raritain,Qualifications,37,red,1,1626,1807,Yes,0,,0,0,slow,0-33%,0,0,0,3,0-33%,Yes,0,0,,No,195,,Yes,
[21:59:41][DEBUG] io.github.mdillon95.scoutingpc.DataManager: Read: 3/18/2017 17:07:53,,2559,,MAR Bridgewater-Raritain,Qualifications,39,blue,1,4035,4281,Yes,0,,0,0,slow,0-33%,0,0,0,2,0-33%,Yes,0,0,,No,151,,Yes,
[21:59:41][DEBUG] io.github.mdillon95.scoutingpc.DataManager: Read: 3/18/2017 17:16:03,,714,,MAR Bridgewater-Raritain,Qualifications,40,blue,1,56,3340,Yes,0,,0,0,slow,0-33%,0,0,0,1,0-33%,No,0,0,,No,160,slow hanger,No,
[21:59:41][DEBUG] io.github.mdillon95.scoutingpc.DataManager: Read: 3/18/2017 17:21:51,,224,,MAR Bridgewater-Raritain,Qualifications,41,blue,2,4653,193,Yes,0,,0,0,slow,0-33%,0,0,3,1,67-100%,No,0,0,,No,155,,Yes,
[21:59:41][DEBUG] io.github.mdillon95.scoutingpc.DataManager: Read: 3/18/2017 17:30:45,,102,,MAR Bridgewater-Raritain,Qualifications,42,blue,2,1807,1403,Yes,0,,7,0,fast,67-100%,7,1,0,1,34-66%,Yes,0,0,,Yes,308,,No,
[21:59:41][DEBUG] io.github.mdillon95.scoutingpc.DataManager: Read: 3/18/2017 17:40:22,,3515,,MAR Bridgewater-Raritain,Qualifications,43,red,2,3142,41,Yes,0,,0,0,slow,0-33%,0,0,0,1,0-33%,No,0,0,,No,195,,Yes,
[21:59:41][DEBUG] io.github.mdillon95.scoutingpc.DataManager: Read: 3/18/2017 17:48:05,,223,,MAR Bridgewater-Raritain,Qualifications,44,blue,2,193,2559,Yes,1,,0,0,slow,0-33%,0,0,3,2,0-33%,Yes,0,0,,Yes,220,,Yes,
[22:1:18][INFO] io.github.mdillon95.scoutingpc.ScoutingFrame: Main window closing, quitting.
[22:1:18][INFO] io.github.mdillon95.scoutingpc.Main: Program Exit
